{
  "id": "ES_P",
  "name": "Spain (Peninsula)",
  "description": "Spain, only peninsula.",
  "group_name": "European Union",
  "countries": {
    "ES": {
      "name": "Spain (Peninsula)",
      "exclude": [
        "/(07|51|52|35|38)[0-9]{3}/"
      ]
    }
  }
}
