{
  "id": "AF_CONTINENT",
  "name": "Africa",
  "description": "All countries of Africa continent.",
  "group_name": "Default zone",
  "countries": {
    "DZ": {
      "name": "Algeria"
    },
    "AO": {
      "name": "Angola"
    },
    "BJ": {
      "name": "Benin"
    },
    "BW": {
      "name": "Botswana"
    },
    "BF": {
      "name": "Burkina Faso"
    },
    "BI": {
      "name": "Burundi"
    },
    "CM": {
      "name": "Cameroon"
    },
    "CV": {
      "name": "Cape Verde"
    },
    "CF": {
      "name": "Central African Republic"
    },
    "TD": {
      "name": "Chad"
    },
    "KM": {
      "name": "Comoros"
    },
    "CG": {
      "name": "Congo"
    },
    "CD": {
      "name": "Congo, The Democratic Republic of the"
    },
    "CI": {
      "name": "Côte d'Ivoire"
    },
    "DJ": {
      "name": "Djibouti"
    },
    "EG": {
      "name": "Egypt"
    },
    "GQ": {
      "name": "Equatorial Guinea"
    },
    "ER": {
      "name": "Eritrea"
    },
    "ET": {
      "name": "Ethiopia"
    },
    "GA": {
      "name": "Gabon"
    },
    "GM": {
      "name": "Gambia"
    },
    "GH": {
      "name": "Ghana"
    },
    "GN": {
      "name": "Guinea"
    },
    "GW": {
      "name": "Guinea-Bissau"
    },
    "KE": {
      "name": "Kenya"
    },
    "LS": {
      "name": "Lesotho"
    },
    "LR": {
      "name": "Liberia"
    },
    "LY": {
      "name": "Libya"
    },
    "MG": {
      "name": "Madagascar"
    },
    "MW": {
      "name": "Malawi"
    },
    "ML": {
      "name": "Mali"
    },
    "MR": {
      "name": "Mauritania"
    },
    "MU": {
      "name": "Mauritius"
    },
    "YT": {
      "name": "Mayotte"
    },
    "MA": {
      "name": "Morocco"
    },
    "MZ": {
      "name": "Mozambique"
    },
    "NA": {
      "name": "Namibia"
    },
    "NE": {
      "name": "Niger"
    },
    "NG": {
      "name": "Nigeria"
    },
    "RE": {
      "name": "Réunion"
    },
    "RW": {
      "name": "Rwanda"
    },
    "SH": {
      "name": "Saint Helena, Ascension and Tristan da Cunha"
    },
    "ST": {
      "name": "São Tomé and Príncipe"
    },
    "SN": {
      "name": "Senegal"
    },
    "SC": {
      "name": "Seychelles"
    },
    "SL": {
      "name": "Sierra Leone"
    },
    "SO": {
      "name": "Somalia"
    },
    "ZA": {
      "name": "South Africa"
    },
    "SS": {
      "name": "South Sudan"
    },
    "SD": {
      "name": "Sudan"
    },
    "SZ": {
      "name": "Swaziland"
    },
    "TZ": {
      "name": "Tanzania, United Republic of"
    },
    "TG": {
      "name": "Togo"
    },
    "TN": {
      "name": "Tunisia"
    },
    "UG": {
      "name": "Uganda"
    },
    "EH": {
      "name": "Western Sahara"
    },
    "ZM": {
      "name": "Zambia"
    },
    "ZW": {
      "name": "Zimbabwe"
    }
  }
}
