{
  "id": "EU_CONTINENT",
  "name": "Europe",
  "description": "All countries of Europe continent.",
  "group_name": "Default zone",
  "countries": {
    "AX": {
      "name": "Åland Islands"
    },
    "AL": {
      "name": "Albania"
    },
    "AD": {
      "name": "Andorra"
    },
    "AT": {
      "name": "Austria"
    },
    "BY": {
      "name": "Belarus"
    },
    "BE": {
      "name": "Belgium"
    },
    "BA": {
      "name": "Bosnia and Herzegovina"
    },
    "BG": {
      "name": "Bulgaria"
    },
    "HR": {
      "name": "Croatia"
    },
    "CZ": {
      "name": "Czech Republic"
    },
    "DK": {
      "name": "Denmark"
    },
    "EE": {
      "name": "Estonia"
    },
    "FO": {
      "name": "Faroe Islands"
    },
    "FI": {
      "name": "Finland"
    },
    "FR": {
      "name": "France"
    },
    "DE": {
      "name": "Germany"
    },
    "GI": {
      "name": "Gibraltar"
    },
    "GR": {
      "name": "Greece"
    },
    "GG": {
      "name": "Guernsey"
    },
    "VA": {
      "name": "Holy See (Vatican City State)"
    },
    "HU": {
      "name": "Hungary"
    },
    "IS": {
      "name": "Iceland"
    },
    "IE": {
      "name": "Ireland"
    },
    "IM": {
      "name": "Isle of Man"
    },
    "IT": {
      "name": "Italy"
    },
    "JE": {
      "name": "Jersey"
    },
    "LV": {
      "name": "Latvia"
    },
    "LI": {
      "name": "Liechtenstein"
    },
    "LT": {
      "name": "Lithuania"
    },
    "LU": {
      "name": "Luxembourg"
    },
    "MK": {
      "name": "Macedonia, The Former Yugoslav Republic of"
    },
    "MT": {
      "name": "Malta"
    },
    "MD": {
      "name": "Moldova, Republic of"
    },
    "MC": {
      "name": "Monaco"
    },
    "ME": {
      "name": "Montenegro"
    },
    "NL": {
      "name": "Netherlands"
    },
    "NO": {
      "name": "Norway"
    },
    "PL": {
      "name": "Poland"
    },
    "PT": {
      "name": "Portugal"
    },
    "RO": {
      "name": "Romania"
    },
    "RU": {
      "name": "Russian Federation"
    },
    "SM": {
      "name": "San Marino"
    },
    "RS": {
      "name": "Serbia"
    },
    "SK": {
      "name": "Slovakia"
    },
    "SI": {
      "name": "Slovenia"
    },
    "ES": {
      "name": "Spain"
    },
    "SJ": {
      "name": "Svalbard and Jan Mayen"
    },
    "SE": {
      "name": "Sweden"
    },
    "CH": {
      "name": "Switzerland"
    },
    "UA": {
      "name": "Ukraine"
    },
    "GB": {
      "name": "United Kingdom"
    }
  }
}
