{
  "id": "OC_CONTINENT",
  "name": "Oceania",
  "description": "All countries of Oceania continent.",
  "group_name": "Default zone",
  "countries": {
    "AS": {
      "name": "American Samoa"
    },
    "AU": {
      "name": "Australia"
    },
    "CK": {
      "name": "Cook Islands"
    },
    "FJ": {
      "name": "Fiji"
    },
    "PF": {
      "name": "French Polynesia"
    },
    "GU": {
      "name": "Guam"
    },
    "KI": {
      "name": "Kiribati"
    },
    "MH": {
      "name": "Marshall Islands"
    },
    "FM": {
      "name": "Micronesia, Federated States of"
    },
    "NR": {
      "name": "Nauru"
    },
    "NC": {
      "name": "New Caledonia"
    },
    "NZ": {
      "name": "New Zealand"
    },
    "NU": {
      "name": "Niue"
    },
    "NF": {
      "name": "Norfolk Island"
    },
    "MP": {
      "name": "Northern Mariana Islands"
    },
    "PW": {
      "name": "Palau"
    },
    "PG": {
      "name": "Papua New Guinea"
    },
    "PN": {
      "name": "Pitcairn"
    },
    "WS": {
      "name": "Samoa"
    },
    "SB": {
      "name": "Solomon Islands"
    },
    "TK": {
      "name": "Tokelau"
    },
    "TO": {
      "name": "Tonga"
    },
    "TV": {
      "name": "Tuvalu"
    },
    "UM": {
      "name": "United States Minor Outlying Islands"
    },
    "VU": {
      "name": "Vanuatu"
    },
    "WF": {
      "name": "Wallis and Futuna"
    }
  }
}
