{
  "id": "SA_CONTINENT",
  "name": "South America",
  "description": "All countries of South America continent.",
  "group_name": "Default zone",
  "countries": {
    "AR": {
      "name": "Argentina"
    },
    "BO": {
      "name": "Bolivia, Plurinational State of"
    },
    "BR": {
      "name": "Brazil"
    },
    "CL": {
      "name": "Chile"
    },
    "CO": {
      "name": "Colombia"
    },
    "EC": {
      "name": "Ecuador"
    },
    "FK": {
      "name": "Falkland Islands (Malvinas)"
    },
    "GF": {
      "name": "French Guiana"
    },
    "GY": {
      "name": "Guyana"
    },
    "PY": {
      "name": "Paraguay"
    },
    "PE": {
      "name": "Peru"
    },
    "SR": {
      "name": "Suriname"
    },
    "UY": {
      "name": "Uruguay"
    },
    "VE": {
      "name": "Venezuela, Bolivarian Republic of"
    }
  }
}
